[gd_scene load_steps=3 format=2]

[ext_resource path="res://Scripts/Highscores/Highscores.gd" type="Script" id=1]
[ext_resource path="res://Fonts/Righteous.tres" type="DynamicFont" id=2]

[node name="Control" type="Control"]
script = ExtResource( 1 )

[node name="lbl_highscores" type="Label" parent="."]
margin_left = 103.13
margin_top = 11.0496
margin_right = 619.13
margin_bottom = 136.05
custom_fonts/font = ExtResource( 2 )
text = "Highscores"
align = 1

[node name="btn_back" type="Button" parent="."]
margin_left = 11.2495
margin_top = 894.22
margin_right = 358.249
margin_bottom = 1015.22
custom_fonts/font = ExtResource( 2 )
text = "< Back"

[node name="rlbl_highscores" type="RichTextLabel" parent="."]
margin_left = -0.0505371
margin_top = 143.455
margin_right = 714.949
margin_bottom = 860.455
custom_fonts/normal_font = ExtResource( 2 )
bbcode_enabled = true
bbcode_text = "[center]"

[connection signal="pressed" from="btn_back" to="." method="_on_btn_back_pressed"]
