[gd_scene load_steps=3 format=2]

[ext_resource path="res://Scripts/MainMenu/MainMenu_Control.gd" type="Script" id=1]
[ext_resource path="res://Fonts/Righteous.tres" type="DynamicFont" id=2]

[node name="Control" type="Control"]
anchor_right = 1.0
anchor_bottom = 1.0
script = ExtResource( 1 )

[node name="btn_play" type="Button" parent="."]
margin_left = 245.381
margin_top = 405.095
margin_right = 461.381
margin_bottom = 536.095
rect_pivot_offset = Vector2( 294.619, 44.905 )
custom_fonts/font = ExtResource( 2 )
text = "Play"

[node name="btn_highscores" type="Button" parent="."]
margin_left = 90.6861
margin_top = 564.701
margin_right = 618.686
margin_bottom = 695.701
rect_pivot_offset = Vector2( 294.619, 44.905 )
custom_fonts/font = ExtResource( 2 )
text = "Highscores"

[node name="Label" type="Label" parent="."]
margin_left = 94.0
margin_top = 32.0
margin_right = 620.0
margin_bottom = 148.0
custom_fonts/font = ExtResource( 2 )
text = "Skiing Game"
align = 1
valign = 1

[connection signal="pressed" from="btn_play" to="." method="_on_btn_play_pressed"]
[connection signal="pressed" from="btn_highscores" to="." method="_on_btn_highscores_pressed"]
